…
**Option 2 (summarizing)** Here I am computing the number of different
kinds of trees that are present within the categorical variable
*genus_name* of my VGH-specific *vancouver_trees* dataset to understand
how many records of height and diameter per tree type I have to work
with when determining which is tallest and has the greatest diameter.

``` r
FiltVanTrees %>% 
  count(genus_name)
```

    ## # A tibble: 25 × 2
    ##    genus_name         n
    ##    <chr>          <int>
    ##  1 ACER             222
    ##  2 AMELANCHIER        1
    ##  3 BETULA             2
    ##  4 CARPINUS          18
    ##  5 CATALPA            5
    ##  6 CERCIDIPHYLLUM     2
    ##  7 CHAMAECYPARIS      3
    ##  8 FAGUS             45
    ##  9 FRAXINUS          22
    ## 10 GLEDITSIA          1
    ## # ℹ 15 more rows
…
Be sure to explain your reasoning for this task. Show us the “before”
and “after”.

<!--------------------------- Start your work below --------------------------->

``` r
# BEFORE (vancouver_trees is a tidy dataset)

TidyVanTrees <- FiltVanTrees %>%
  select(tree_id, genus_name, species_name, height_range_id, diameter, curb, longitude, latitude)

print(TidyVanTrees, n = 10)
```

    ## # A tibble: 449 × 8
    ##    tree_id genus_name     species_name height_range_id diameter curb  longitude
    ##      <dbl> <chr>          <chr>                  <dbl>    <dbl> <chr>     <dbl>
    ##  1  162057 CHAMAECYPARIS  SPECIES                    5     12   Y           NA 
    ##  2  163167 FRAXINUS       EXCELSIOR                  4     21   Y         -123.
    ##  3  223127 MAGNOLIA       KOBUS                      1      3   Y         -123.
    ##  4  223129 CERCIDIPHYLLUM JAPONICUM                  2      3   Y         -123.
    ##  5   11690 ACER           RUBRUM                     3     20.4 Y         -123.
    ##  6   11696 ACER           RUBRUM                     3     16.6 Y         -123.
    ##  7   11717 ACER           PLATANOIDES                2     13   Y         -123.
    ##  8   11718 ACER           PLATANOIDES                2     14   Y         -123.
    ##  9   11728 ACER           RUBRUM                     3     17   Y         -123.
    ## 10   11739 ACER           RUBRUM                     4     18   Y         -123.
    ## # ℹ 439 more rows
    ## # ℹ 1 more variable: latitude <dbl>

``` r
# AFTER (making vancouver_trees untidy)

UntidyVanTrees <- TidyVanTrees %>%
  pivot_wider(names_from = "genus_name",
              values_from = "diameter")

print(UntidyVanTrees, n = 10)
```

    ## # A tibble: 449 × 31
    ##    tree_id species_name height_range_id curb  longitude latitude CHAMAECYPARIS
    ##      <dbl> <chr>                  <dbl> <chr>     <dbl>    <dbl>         <dbl>
    ##  1  162057 SPECIES                    5 Y           NA      NA              12
    ##  2  163167 EXCELSIOR                  4 Y         -123.     49.3            NA
    ##  3  223127 KOBUS                      1 Y         -123.     49.3            NA
    ##  4  223129 JAPONICUM                  2 Y         -123.     49.3            NA
    ##  5   11690 RUBRUM                     3 Y         -123.     49.3            NA
    ##  6   11696 RUBRUM                     3 Y         -123.     49.3            NA
    ##  7   11717 PLATANOIDES                2 Y         -123.     49.3            NA
    ##  8   11718 PLATANOIDES                2 Y         -123.     49.3            NA
    ##  9   11728 RUBRUM                     3 Y         -123.     49.3            NA
    ## 10   11739 RUBRUM                     4 Y         -123.     49.3            NA
    ## # ℹ 439 more rows
    ## # ℹ 24 more variables: FRAXINUS <dbl>, MAGNOLIA <dbl>, CERCIDIPHYLLUM <dbl>,
    ## #   ACER <dbl>, ULMUS <dbl>, CARPINUS <dbl>, PRUNUS <dbl>, QUERCUS <dbl>,
    ## #   FAGUS <dbl>, NYSSA <dbl>, PICEA <dbl>, SYRINGA <dbl>, PYRUS <dbl>,
    ## #   MALUS <dbl>, CATALPA <dbl>, TSUGA <dbl>, BETULA <dbl>, GLEDITSIA <dbl>,
    ## #   THUJA <dbl>, AMELANCHIER <dbl>, SORBUS <dbl>, ROBINIA <dbl>, RHUS <dbl>,
    ## #   PSEUDOTSUGA <dbl>
…
``` r
# Tidying data back to original state

RETidyVanTrees <- UntidyVanTrees %>%
  pivot_longer(cols = c(-"tree_id", -"species_name", -"height_range_id", -"curb", -"longitude", -"latitude"),
               names_to = "genus_name",
               values_to = "diameter", values_drop_na = TRUE) %>%
  select(tree_id, genus_name, species_name, height_range_id, diameter, everything()) # Reordering columns to original arrangement

print(RETidyVanTrees, n = 10)  
```

    ## # A tibble: 449 × 8
    ##    tree_id genus_name     species_name height_range_id diameter curb  longitude
    ##      <dbl> <chr>          <chr>                  <dbl>    <dbl> <chr>     <dbl>
    ##  1  162057 CHAMAECYPARIS  SPECIES                    5     12   Y           NA 
    ##  2  163167 FRAXINUS       EXCELSIOR                  4     21   Y         -123.
    ##  3  223127 MAGNOLIA       KOBUS                      1      3   Y         -123.
    ##  4  223129 CERCIDIPHYLLUM JAPONICUM                  2      3   Y         -123.
    ##  5   11690 ACER           RUBRUM                     3     20.4 Y         -123.
    ##  6   11696 ACER           RUBRUM                     3     16.6 Y         -123.
    ##  7   11717 ACER           PLATANOIDES                2     13   Y         -123.
    ##  8   11718 ACER           PLATANOIDES                2     14   Y         -123.
    ##  9   11728 ACER           RUBRUM                     3     17   Y         -123.
    ## 10   11739 ACER           RUBRUM                     4     18   Y         -123.
    ## # ℹ 439 more rows
    ## # ℹ 1 more variable: latitude <dbl>
…
``` r
# The predicted diameter based on the model is referred to as '.fitted' in the below tibble.

library(broom)
```

    ## Warning: package 'broom' was built under R version 4.2.3

``` r
augment(lm_VanTrees) %>%
  print(n = 10)
```

    ## # A tibble: 449 × 8
    ##    diameter height_range_id .fitted .resid    .hat .sigma   .cooksd .std.resid
    ##       <dbl>           <dbl>   <dbl>  <dbl>   <dbl>  <dbl>     <dbl>      <dbl>
    ##  1     12                 5   19.2  -7.21  0.00511   5.18 0.00498      -1.39  
    ##  2     21                 4   15.0   5.96  0.00280   5.18 0.00186       1.15  
    ##  3      3                 1    2.54  0.465 0.00649   5.19 0.0000264     0.0900
    ##  4      3                 2    6.70 -3.70  0.00349   5.19 0.000897     -0.715 
    ##  5     20.4               3   10.9   9.53  0.00226   5.17 0.00384       1.84  
    ##  6     16.6               3   10.9   5.73  0.00226   5.18 0.00139       1.11  
    ##  7     13                 2    6.70  6.30  0.00349   5.18 0.00259       1.22  
    ##  8     14                 2    6.70  7.30  0.00349   5.18 0.00348       1.41  
    ##  9     17                 3   10.9   6.13  0.00226   5.18 0.00159       1.18  
    ## 10     18                 4   15.0   2.96  0.00280   5.19 0.000459      0.572 
    ## # ℹ 439 more rows
…
